module mc128k.com/autofixnames

go 1.13

require (
	github.com/alecthomas/template v0.0.0-20190718012654-fb15b899a751 // indirect
	github.com/alecthomas/units v0.0.0-20190924025748-f65c72e2690d // indirect
	golang.org/x/text v0.3.7
	gopkg.in/alecthomas/kingpin.v2 v2.2.6
)
